{
  "project_info": {
    "project_number": "265189518462",
    "firebase_url": "https://mvmshop-c383a.firebaseio.com",
    "project_id": "mvmshop-c383a",
    "storage_bucket": "mvmshop-c383a.appspot.com"
  },
  "client": [
    {
      "client_info": {
        "mobilesdk_app_id": "1:265189518462:android:5ca7cd235d93f28eec7c2f",
        "android_client_info": {
          "package_name": "com.example.mvmshop2"
        }
      },
      "oauth_client": [
        {
          "client_id": "265189518462-hrj99hhkcul5o72lc0bel5t504v15olc.apps.googleusercontent.com",
          "client_type": 1,
          "android_info": {
            "package_name": "com.example.mvmshop2",
            "certificate_hash": "b47bf670cc90687a25fe68f3980a24757450b165"
          }
        },
        {
          "client_id": "265189518462-mcahl9m7qo4t2jtvqalbt4k6hq07tutu.apps.googleusercontent.com",
          "client_type": 3
        }
      ],
      "api_key": [
        {
          "current_key": "AIzaSyBDwQVMjffaczqO1pT3Wjdy2m8yfIG9Ww8"
        }
      ],
      "services": {
        "appinvite_service": {
          "other_platform_oauth_client": [
            {
              "client_id": "265189518462-mcahl9m7qo4t2jtvqalbt4k6hq07tutu.apps.googleusercontent.com",
              "client_type": 3
            }
          ]
        }
      }
    }
  ],
  "configuration_version": "1"
}